after get the uboot from uart set tftp 
set the env ip:(example)
setenv serverip 10.0.0.3
setenv ipaddr 10.0.0.10
setenv gatewayip 10.0.0.138
setenv rcvrip 10.0.0.10
-------------------------------------------------------------------
set :u-boot-rd88f6601mc2l_333rd_A-MC_ddr2_spi.bin on the tftp dir
on the terminal run:
bubt u-boot-rd88f6601mc2l_333rd_A-MC_ddr2_spi.bin
efter end :
boot:
----------------------------------------------
set agin the ip env:
setenv serverip 10.0.0.3
setenv ipaddr 10.0.0.10
setenv gatewayip 10.0.0.138
setenv rcvrip 10.0.0.10
set env for upload the linux img
-----------------------------------------------
setenv bootcmd_spi 'tftpboot ${loadaddr} ${image_name}; sf protect off; sf erase 0x100000 0xF00000; sf write ${loadaddr} 0x100000 0xF00000;reset'
setenv bootcmd 'setenv bootargs ${console} root=/dev/mtdblock2 rootfstype=squashfs ${mtdParts} ${mvNetConfig} ${mvPhoneConfig}; sf read ${loadaddr} 0x100000 0x300000; bootm ${loadaddr}'
setenv mtdParts mtdparts=spi_flash:1M@0(uboot),3M@0x100000(uImg)ro,10M@0x400000(rootFs)ro,1M@0xE00000(vars)rw
setenv image_name sdk_unified.img
save
-------------------------------------------------------------------------------------------------------
set the sdk_unified.img on the tftp dir then 
run:
run bootcmd_spi
-----------------------------------------------------------------------------------------------
