        <!--=====================    midware   ===================-->
        <COMMAND 	name="midware"
					help="Enter MIDWARE view"
					view="midware_view"
					viewid="name=midware;foobar=">
		</COMMAND>
    </VIEW>

</CLISH_MODULE>

